{
    "output_format": "html", 
    "devhelp_activate": true,
    "index": "docs/index.md",
    "output": "build",
    "project_name": "AppDevDoc",
    "extra_assets": ["media"],
    "project_version": "0.1",
    "sitemap": "sitemap.txt"
}
